{
    "openapi": "3.0.0",
    "info": {
        "title": "Swagger Car Data Management",
        "description": "Ini merupakan hasil project terkait challenge chapter 6 by kelompok 4",
        "version": "1.0.0"
    },
    "servers": [{
        "url": "http://localhost:5001",
        "description": "localhost"
    }],
    "tags": [
        {
            "name": "User",
            "description": "Dokumentasi Endpoint User Access"
        },
        {
            "name": "Admin",
            "description": "Dokumentasi Endpoint Admin Access"
        }
    ],
    "components": {
        "securitySchemes" : {
            "bearerAuth" : {
                "type" : "http",
                "description" : "JWT Authorization",
                "scheme" : "bearer",
                "bearerFormat" : "JWT"
            }
        }
    },
    "paths": {
     
        "/users/register": {
            "post": {
                "tags": ["User"],
                "summary": "Register Account",
                "description" : "",
                "requestBody" : {
                    "required": true,
                    "content" : {
                        "application/json": {
                            "schema" :{
                                "type":"object",
                                "properties":{
                                    "name": {
                                        "type":"string"
                                    },
                                    "email": {
                                        "type":"string"
                                    },
                                    "password": {
                                        "type":"string"
                                    },
                                    "confPassword": {
                                        "type":"string"
                                    }
                                }
                            },
                            "example" : {
                                        "name": "audimaoktasena",
                                        "email": "audimaoktasena@gmail.com",
                                        "password": "1234",
                                        "confPassword" : "1234"
                            }
                        }
                    }
                },
                "responses" : {
                    "200":{
                        "description":"Membuat accout baru berhasil"
                    },
                    "403" :{
                        "description":"Password dan confirm Password tidak cocok"
                    }
                }
            }
        },
        "/users/login": {
            "post": {
                "tags": ["User", "Admin", "Superadmin"],
                "summary": "Login Account",
                "description" : "",
                "requestBody" : {
                    "required": true,
                    "content" : {
                        "application/json": {
                            "schema" :{
                                "type":"object",
                                "properties":{
                                    "email": {
                                        "type":"string"
                                    },
                                    "password": {
                                        "type":"string"
                                    }
                                }
                            },
                            "example" : {
                                        "email": "audimaoktasena@gmail.com",
                                        "password": "1234"
                            }
                        }
                    }
                },
                "responses" : {
                    "200" : {
                        "description" : "successful operation"
                    },
                    "400": {
                        "content" : {
                            "application/json" : {
                                "schema" : {
                                    "type": "array",
                                    "items": {
                                        "type":"object"
                                    }
                                },
                                "example" : {
                                    "msg" : "Wrong Password"
                        }
                            }
                        }
                    }
                }
            }
        },
        "/users/current": {
            "get": {
                "tags": ["User", "Admin", "Superadmin"],
                "summary": "Get current data user",
                "description": "",
                "responses": {
                    "200": {
                        "description": "Success get data"
                    },
                    "404": {
                        "description": "Error"
                    }
                },
                "security": [
                    {
                      "bearerAuth": []
                    }
                  ]
            }
        },
        "/cars": {
            "get": {
                "tags": ["User", "Superadmin", "Admin"],
                "summary": "Get all cars data",
                "description": "",
                "responses": {
                    "200": {
                        "description": "Success get all cars data"
                    },
                    "404": {
                        "description": "Cars not found"
                    }
                },
                "security": [
                    {
                      "bearerAuth": []
                    }
                  ]
            }
        },
        "/cars/{id}" : {
            "get": {
                "tags": ["Admin","User","Superadmin"],
                "summary": "Get car data by id",
                "description": "",
                "parameters": [
                    {
                        "name": "id",
                        "in": "path",
                        "required": true,
                        "description": "Car id for updated",
                        "schema" : {
                            "type": "integer"
                        }
                    }
                ],
                "responses": {

                    "200": {
                        "description": "Sukses",
                        "content" : {
                            "application/json": {
                                "schema" :{
                                    "type":"object",
                                    "properties":{
                                        "plate": {
                                            "type":"string"
                                        },
                                        "manufacture": {
                                            "type":"string"
                                        },
                                        "model": {
                                            "type":"string"
                                        },
                                        "image": {
                                            "type":"string"
                                        },
                                        "rentperDay": {
                                            "type":"string"
                                        },
                                        "capacity": {
                                            "type":"string"
                                        },
                                        "description": {
                                            "type":"string"
                                        },
                                        "availableAt": {
                                            "type":"string"
                                        },
                                        "transmission": {
                                            "type":"string"
                                        },
                                        "available": {
                                            "type":"boolean"
                                        },
                                        "type": {
                                            "type":"string"
                                        },
                                        "year": {
                                            "type":"string"
                                        },
                                        "options": {
                                            "type":"string"
                                        },
                                        "specs": {
                                            "type":"string"
                                        }
                                    }
                                }
                            }
                        }
                    },
                    "404": {
                        "description": "Barang not found"
                    }
                },
                "security": [
                    {
                      "bearerAuth": []
                    }
                  ]
            }
        },
        "/logout": {
            "delete" : {
                "tags": ["User"],
                "summary": "Logout",
                "description" : "",
                "responses" : {
                    "200" : {
                        "description":"OK"
                    }
                }
            }
        },

        "/car" : {
        "post" : {
            "tags": ["Superadmin", "Admin"],
            "summary": "Add new cars data",
            "description" : "",
            "requestBody" : {
                "required": true,
                "content" : {
                    "application/json": {
                        "schema" :{
                            "type":"object",
                            "properties":{
                                "plate": {
                                    "type":"string"
                                }, 
                                "manufacture" : {
                                    "type":"string"
                                },
                                "model": {
                                    "type":"string"
                                }, 
                                "image" : {
                                    "type":"string"
                                },
                                "rentperDay": {
                                    "type":"string"
                                }, 
                                "capacity" : {
                                    "type":"string"
                                },
                                "description" : {
                                    "type":"string"
                                },
                                "availableAt": {
                                    "type": "date"
                                }, 
                                "transmission" : {
                                    "type":"string"
                                },
                                "available" : {
                                    "type": "boolean"
                                },
                                "type" : {
                                    "type":"string"
                                },
                                "options": {
                                    "type": "string"
                                }, 
                                "specs" : {
                                    "type":"string"
                                }
                            }
                        },
                        "example" : {
                            "plate": "DBH-3491 New Data",
                            "manufacture": "Ford New Data",
                            "model": "F150 New Data",
                            "image": "./images/car01.min.jpg New Data",
                            "rentperDay": "200000 New Data",
                            "capacity": "New Data",
                            "description": "Brake assist. Leather-wrapped shift knob. Glove box lamp. Air conditioning w/in-cabin microfilter.",
                            "availableAt": "2022-03-23T15:49:05.563Z",
                            "transmission" : "Manual",
                            "available": true,
                            "type": "Sedan",
                            "year": "2022",
                            "options": "Cruise Control, Tinted Glass",
                            "specs": "Brake assist"
                        }
                    }
                }
            },
            "responses" : {
                "200":{
                    "description":"Data berhasil diinput"
                },
                "403" :{
                    "description":"Forbidden"
                }
            },
            "security": [
                {
                  "bearerAuth": []
                }
              ]
            }
        },
        "/car/{id}" : {
            "put" : {
                "tags": ["Superadmin" , "Admin"],
                "summary" : "Updated Car data",
                "description": "Update Car data by Superadmin",
                "parameters": [
                    {
                        "name": "id",
                        "in": "path",
                        "required": true,
                        "description": "Role for updated",
                        "schema" : {
                            "type": "integer"
                        }
                    }
                ],
                "requestBody" : {
                    "required": true,
                    "content" : {
                        "application/json": {
                            "schema" :{
                                "type":"object",
                                "properties":{
                                    "plate": {
                                        "type":"string"
                                    },
                                    "manufacture": {
                                        "type":"string"
                                    },
                                    "model": {
                                        "type":"string"
                                    },
                                    "image": {
                                        "type":"string"
                                    },
                                    "rentperDay": {
                                        "type":"string"
                                    },
                                    "capacity": {
                                        "type":"string"
                                    },
                                    "description": {
                                        "type":"string"
                                    },
                                    "availableAt": {
                                        "type":"string"
                                    },
                                    "transmission": {
                                        "type":"string"
                                    },
                                    "available": {
                                        "type":"boolean"
                                    },
                                    "type": {
                                        "type":"string"
                                    },
                                    "year": {
                                        "type":"string"
                                    },
                                    "options": {
                                        "type":"string"
                                    },
                                    "specs": {
                                        "type":"string"
                                    }
                                }
                            },
                            "example" : {
                                "plate": "DBH-3491 Updated",
                                "manufacture": "Ford Updated",
                                "model": "F150 Updated",
                                "image": "./images/car01.min.jpg Updated",
                                "rentperDay": "200000 Updated",
                                "capacity": "Updated",
                                "description": "Brake assist. Leather-wrapped shift knob. Glove box lamp. Air conditioning w/in-cabin microfilter.",
                                "availableAt": "2022-03-23T15:49:05.563Z",
                                "transmission" : "Manual",
                                "available": true,
                                "type": "Sedan",
                                "year": "2022",
                                "options": "Cruise Control, Tinted Glass",
                                "specs": "Brake assist"
                    }
                        }
                    }
                },
                "responses" : {
                    "200":{
                        "description":"Data berhasil di-update"
                    },
                    "403" :{
                        "description":"Forbidden"
                    }
                },
                "security": [
                    {
                      "bearerAuth": []
                    }
                  ]
            },
            "delete" : {
                "tags": ["Admin", "Superadmin"],
                "summary": "Delete Cars data",
                "description" : "",
                "parameters": [
                    {
                        "name": "id",
                        "in": "path",
                        "required": true,
                        "description": "Car id for deleted",
                        "schema" : {
                            "type": "string"
                        }
                    }
                ],
                "responses" : {
                    "200" : {
                        "description":"OK"
                    }
                },
                "security": [
                    {
                      "bearerAuth": []
                    }
                  ]
            
            }
        },
        "/superadmin/{id}" : {
            "put" : {
                "tags": ["Superadmin"],
                "summary" : "Updated member to admin",
                "description": "Update member to admin by Superadmin",
                "parameters": [
                    {
                        "name": "id",
                        "in": "path",
                        "required": true,
                        "description": "Role for updated",
                        "schema" : {
                            "type": "integer"
                        }
                    }
                ],
                "requestBody" : {
                    "required": true,
                    "content" : {
                        "application/json": {
                            "schema" :{
                                "type":"object",
                                "properties":{
                                    "role": {
                                        "type":"string"
                                    }
                                }
                            },
                            "example" : {
                                "role": "admin"
                    }
                        }
                    }
                },
                "responses" : {
                    "200":{
                        "description":"Data berhasil di-update"
                    },
                    "403" :{
                        "description":"Forbidden"
                    }
                },
                "security": [
                    {
                      "bearerAuth": []
                    }
                  ]
            }
        }

        
    }
}